{
  "project_info": {
    "project_number": "130982438508",
    "project_id": "kajain-go"
  },
  "client": [
    {
      "client_info": {
        "mobilesdk_app_id": "1:130982438508:android:1f6a44c38d9c1f8a",
        "android_client_info": {
          "package_name": "harmoni.kajiango"
        }
      },
      "oauth_client": [
        {
          "client_id": "130982438508-2pfhi77c9eqv4u7cndqc0oi9kbbrloc5.apps.googleusercontent.com",
          "client_type": 1,
          "android_info": {
            "package_name": "harmoni.kajiango",
            "certificate_hash": "4562FD1CE542712BCAA30C8BD20AA593C21B9E17"
          }
        },
        {
          "client_id": "130982438508-29a6ldnt0ounj35av6v1hqec5kvp6h5f.apps.googleusercontent.com",
          "client_type": 3
        }
      ],
      "api_key": [
        {
          "current_key": "AIzaSyBhsnnuwYF0LYvFvV1fALfXq47fmm2l0hY"
        }
      ],
      "services": {
        "analytics_service": {
          "status": 1
        },
        "appinvite_service": {
          "status": 1,
          "other_platform_oauth_client": []
        },
        "ads_service": {
          "status": 1
        }
      }
    }
  ],
  "configuration_version": "1"
}